9 SQL for Data Science – MATH6195: Fundamentals of Data Science in R
…
# Example: Find total orders per customer
orders |>
    group_by(customer_id) |>
    summarise(order_count = n()) |> # n() - shortcut for counting rows
    collect()

# A tibble: 23 × 2
   customer_id order_count
         <int>       <int>
 1           1           6
 2           2           5
 3           3           5
 4           4           5
 5           5           5
 6           6           5
 7           7           5
 8           8           5
 9           9           5
10          10           5
# ℹ 13 more rows

# Example: Join tables to get customer names and their orders
orders |>
    inner_join(customers, by = c("customer_id" = "id")) |>
    inner_join(products, by = c("product_id" = "id")) |>
    select(first_name, last_name, product_name, quantity) |>
    collect()

# A tibble: 107 × 4
   first_name last_name product_name quantity
   <chr>      <chr>     <chr>           <int>
 1 David      Brown     Widget              2
 2 Eve        Davis     Gadget              1
 3 Frank      Miller    Thingamajig         5
 4 David      Brown     Thingamajig         1
 5 Grace      Wilson    Contraption         2
 6 Henry      Moore     Apparatus           3
 7 Ivy        Taylor    Tool                1
 8 Jack       Anderson  Gadget              4
 9 Karen      Thomas    Gizmo               2
10 Leo        Jackson   Implement           1
# ℹ 97 more rows
…
