4 Data Wrangling I - Loading, Cleaning and Tidying – MATH6195: Fundamentals of Data Science in R
…
Here is an example borrowed from (Wickham, Çentnkaya-Rundel, and Grolemund 2023, sec. 5.2). Below we have some data organised in three different ways. Each shows the same values of four variables: country, year and population, and number of documented cases of Tuberculosis, but organises the data in different ways.

table1
#> # A tibble: 6 × 4
#>   country      year  cases population
#>   <chr>       <dbl>  <dbl>      <dbl>
#> 1 Afghanistan  1999    745   19987071
#> 2 Afghanistan  2000   2666   20595360
#> 3 Brazil       1999  37737  172006362
#> 4 Brazil       2000  80488  174504898
#> 5 China        1999 212258 1272915272
#> 6 China        2000 213766 1280428583

table2
#> # A tibble: 12 × 4
#>   country      year type           count
#>   <chr>       <dbl> <chr>          <dbl>
#> 1 Afghanistan  1999 cases            745
#> 2 Afghanistan  1999 population  19987071
#> 3 Afghanistan  2000 cases           2666
#> 4 Afghanistan  2000 population  20595360
#> 5 Brazil       1999 cases          37737
#> 6 Brazil       1999 population 172006362
#> # ℹ 6 more rows
…
filter() - subset rows

select() - subset columns

mutate() - add or transform columns

arrange() - reorder rows

As an example, consider the gapminder dataset. This provides country-level data on life expectancy, GDP per capita and population, over time.

library(tidyverse)
library(gapminder)
gapminder

# A tibble: 1,704 × 6
   country     continent  year lifeExp      pop gdpPercap
   <fct>       <fct>     <int>   <dbl>    <int>     <dbl>
 1 Afghanistan Asia       1952    28.8  8425333      779.
 2 Afghanistan Asia       1957    30.3  9240934      821.
 3 Afghanistan Asia       1962    32.0 10267083      853.
 4 Afghanistan Asia       1967    34.0 11537966      836.
 5 Afghanistan Asia       1972    36.1 13079460      740.
 6 Afghanistan Asia       1977    38.4 14880372      786.
 7 Afghanistan Asia       1982    39.9 12881816      978.
 8 Afghanistan Asia       1987    40.8 13867957      852.
 9 Afghanistan Asia       1992    41.7 16317921      649.
10 Afghanistan Asia       1997    41.8 22227415      635.
# ℹ 1,694 more rows

As we can see, the gapminder is an r tibble, with 1704 rows and 6 columns. Suppose we want to study the GDP of countries in Asia in 2007. Here’s an example using dplyr to accomplish this.

gapminder |> 
    filter(year == 2007, continent == "Asia") |>
    mutate(gdp_billions = gdpPercap * pop / 1e9) |>
    arrange(desc(lifeExp)) |>
    select(country, lifeExp, gdp_billions)

# A tibble: 33 × 3
   country          lifeExp gdp_billions
   <fct>              <dbl>        <dbl>
 1 Japan               82.6       4035. 
 2 Hong Kong, China    82.2        277. 
 3 Israel              80.7        164. 
 4 Singapore           80.0        215. 
 5 Korea, Rep.         78.6       1145. 
 6 Taiwan              78.4        666. 
 7 Kuwait              77.6        119. 
 8 Oman                75.6         71.5
 9 Bahrain             75.6         21.1
10 Vietnam             74.2        208. 
# ℹ 23 more rows

The code above is human readable - each row describes an operation applied to the dataset, chained together with pipes |>. In other words, we can look at the code and see that we - Took the gapminder dataset, - Applied a filter to the year and continent, - Added a computed column (gdp_billions), - Ordered by lifeExp, - Selected the relevant columns for output.

If we choose any pipe |> and delete the pipe and everything after it, we still get a tibble output which just applies the subset of operations before the pipe. We can thus interpret the pipes as “chaining together” the operations we want to apply.

Note that this can have an impact on cost. For example, consider this example:

gapminder |> 
    mutate(gdp_billions = gdpPercap * pop / 1e9) |>
    arrange(desc(lifeExp)) |>
    filter(year == 2007, continent == "Asia") |>
    select(country, lifeExp, gdp_billions)

# A tibble: 33 × 3
   country          lifeExp gdp_billions
   <fct>              <dbl>        <dbl>
 1 Japan               82.6       4035. 
 2 Hong Kong, China    82.2        277. 
 3 Israel              80.7        164. 
 4 Singapore           80.0        215. 
 5 Korea, Rep.         78.6       1145. 
 6 Taiwan              78.4        666. 
 7 Kuwait              77.6        119. 
 8 Oman                75.6         71.5
 9 Bahrain             75.6         21.1
10 Vietnam             74.2        208. 
# ℹ 23 more rows

The output is the same, but because we apply the mutate operation before the filter, we will compute gdp_billions for all 1704 rows before discarding all but 23 rows. This is wasteful, and can have a significant performance implication on larger datasets!

4.5.1 Grouping

Grouping data is a powerful feature in dplyr that allows you to perform operations within subsets of your data. The group_by() function is used to specify one or more variables to group by, and then you can apply summary functions or transformations to each group.

For example, suppose we want to compute the average life expectancy for each continent in the gapminder dataset. We can first group by the continent:

grouped = gapminder |>
    group_by(continent)
grouped

# A tibble: 1,704 × 6
# Groups:   continent [5]
   country     continent  year lifeExp      pop gdpPercap
   <fct>       <fct>     <int>   <dbl>    <int>     <dbl>
 1 Afghanistan Asia       1952    28.8  8425333      779.
 2 Afghanistan Asia       1957    30.3  9240934      821.
 3 Afghanistan Asia       1962    32.0 10267083      853.
 4 Afghanistan Asia       1967    34.0 11537966      836.
 5 Afghanistan Asia       1972    36.1 13079460      740.
 6 Afghanistan Asia       1977    38.4 14880372      786.
 7 Afghanistan Asia       1982    39.9 12881816      978.
 8 Afghanistan Asia       1987    40.8 13867957      852.
 9 Afghanistan Asia       1992    41.7 16317921      649.
10 Afghanistan Asia       1997    41.8 22227415      635.
# ℹ 1,694 more rows
…
group_keys(grouped) # view what groups are available

# A tibble: 5 × 1
  continent
  <fct>    
1 Africa   
2 Americas 
3 Asia     
4 Europe   
5 Oceania  

group_split(grouped)[[5]] # access the Oceania group

# A tibble: 24 × 6
   country   continent  year lifeExp      pop gdpPercap
   <fct>     <fct>     <int>   <dbl>    <int>     <dbl>
 1 Australia Oceania    1952    69.1  8691212    10040.
 2 Australia Oceania    1957    70.3  9712569    10950.
 3 Australia Oceania    1962    70.9 10794968    12217.
 4 Australia Oceania    1967    71.1 11872264    14526.
 5 Australia Oceania    1972    71.9 13177000    16789.
 6 Australia Oceania    1977    73.5 14074100    18334.
 7 Australia Oceania    1982    74.7 15184200    19477.
 8 Australia Oceania    1987    76.3 16257249    21889.
 9 Australia Oceania    1992    77.6 17481977    23425.
10 Australia Oceania    1997    78.8 18565243    26998.
# ℹ 14 more rows
…
4.6 tidyr

The gapminder dataset is a tall dataset; it contains multiple rows for each country and continent. tidyr contains pivot operations to allow us to convert tall datasets into wide datasets, for example:

gapminder_wide = gapminder |> 
    select(country, year, lifeExp) |>
    pivot_wider(names_from=year, values_from=lifeExp)
gapminder_wide

# A tibble: 142 × 13
   country `1952` `1957` `1962` `1967` `1972` `1977` `1982` `1987` `1992` `1997`
   <fct>    <dbl>  <dbl>  <dbl>  <dbl>  <dbl>  <dbl>  <dbl>  <dbl>  <dbl>  <dbl>
 1 Afghan…   28.8   30.3   32.0   34.0   36.1   38.4   39.9   40.8   41.7   41.8
 2 Albania   55.2   59.3   64.8   66.2   67.7   68.9   70.4   72     71.6   73.0
 3 Algeria   43.1   45.7   48.3   51.4   54.5   58.0   61.4   65.8   67.7   69.2
 4 Angola    30.0   32.0   34     36.0   37.9   39.5   39.9   39.9   40.6   41.0
 5 Argent…   62.5   64.4   65.1   65.6   67.1   68.5   69.9   70.8   71.9   73.3
 6 Austra…   69.1   70.3   70.9   71.1   71.9   73.5   74.7   76.3   77.6   78.8
 7 Austria   66.8   67.5   69.5   70.1   70.6   72.2   73.2   74.9   76.0   77.5
 8 Bahrain   50.9   53.8   56.9   59.9   63.3   65.6   69.1   70.8   72.6   73.9
 9 Bangla…   37.5   39.3   41.2   43.5   45.3   46.9   50.0   52.8   56.0   59.4
10 Belgium   68     69.2   70.2   70.9   71.4   72.8   73.9   75.4   76.5   77.5
# ℹ 132 more rows
# ℹ 2 more variables: `2002` <dbl>, `2007` <dbl>

Now we end up with a 142 \(\times\) 13 tibble whose entries are lifeExp. We can use the “wide” dataset to easily calculate the change in life expecancy:

gapminder_wide |>
    mutate(change = `2007` - `1952`) |>
    select(country, change)

# A tibble: 142 × 2
   country     change
   <fct>        <dbl>
 1 Afghanistan   15.0
 2 Albania       21.2
 3 Algeria       29.2
 4 Angola        12.7
 5 Argentina     12.8
 6 Australia     12.1
 7 Austria       13.0
 8 Bahrain       24.7
 9 Bangladesh    26.6
10 Belgium       11.4
# ℹ 132 more rows

Tip

The backquotes, above, (around 2007 and 1952) are needed to tell R that these are not to be treated as numbers but as literal column names. They would also be needed if for column names containing spaces or symbols like + or $.

The “inverse” of pivot_wider is pivot_longer:

gapminder_wide |>
    pivot_longer(
        cols=colnames(gapminder_wide)[2:ncol(gapminder_wide)], 
        names_to="year", 
        values_to="lifeExp"
    )

# A tibble: 1,704 × 3
   country     year  lifeExp
   <fct>       <chr>   <dbl>
 1 Afghanistan 1952     28.8
 2 Afghanistan 1957     30.3
 3 Afghanistan 1962     32.0
 4 Afghanistan 1967     34.0
 5 Afghanistan 1972     36.1
 6 Afghanistan 1977     38.4
 7 Afghanistan 1982     39.9
 8 Afghanistan 1987     40.8
 9 Afghanistan 1992     41.7
10 Afghanistan 1997     41.8
# ℹ 1,694 more rows
…
